<svg xmlns="http://www.w3.org/2000/svg" xmlns:xlink="http://www.w3.org/1999/xlink" viewBox="0 0 100 100">
  <defs>
    <path id="a" d="M0 0h100v100H0z"/>
  </defs>
  <g fill="none" fill-rule="evenodd">
    <g transform="matrix(-1 0 0 1 100 0)">
      <mask id="b" fill="#fff">
        <use xlink:href="#a"/>
      </mask>
      <path fill="#1CB569" fill-rule="nonzero" d="M50 98C23.4903 98 2 76.5097 2 50S23.4903 2 50 2s48 21.4903 48 48-21.4903 48-48 48z" mask="url(#b)"/>
    </g>
    <g fill="#FFF">
      <path fill-rule="nonzero" d="M84 58.6615h-5.5385v18.4431H84z"/>
      <path d="M27.7292 55.837c1.44.6922 8.8339 4.1538 12.4616 5.7876.2518 2.1684 2.0817 3.8081 4.2646 3.8216h17.197V64.2H44.4276a3.0738 3.0738 0 0 1-2.7692-1.9938v-.4708c0-1.6977 1.3762-3.0739 3.0738-3.0739h7.0892c4.3477 0 7.837-2.4646 12.517-2.4646 5.7323 0 7.1446 2.0216 12.9046 4.4031v13.8462a48.1846 48.1846 0 0 0-12.2954-1.5785 38.1046 38.1046 0 0 0-11.077 1.1077 7.4215 7.4215 0 0 1-4.9845-.4985C42.6 70.7077 32.2708 65.1692 25.9569 61.7077c-5.2892-3.1292-1.523-7.4215 1.7723-5.8708zM17.6492 53.5385h57.96L80.8431 48H12.4154z"/>
    </g>
    <circle cx="15" cy="15" r="15" fill="#FFF" transform="matrix(-1 0 0 1 64 15)"/>
    <path fill="#1CB569" fill-rule="nonzero" d="M49.5956 31.0197l-1.9758-2.0136c1.3769-1.5803 2.3415-3.3693 2.9093-5.2625h2.2793c.3565 0 .5348-.2674.5348-.8022 0-.5348-.1783-.8022-.5348-.8022H47.363v-1.6044c0-.3565-.2658-.5348-.7974-.5348-.5056 0-.7584.1783-.7584.5348v1.6044H40.362c-.3565 0-.5348.2674-.5348.8022 0 .5348.1783.7996.5348.7942h8.6891a12.6954 12.6954 0 0 1-2.466 4.2998c-.9209-1.0371-1.602-2.3992-1.8377-2.8707-.1834-.3667-.1834-.7335-.7335-.7335-.55 0-.9168.3668-.7334.7335.1834.3667 1.2977 2.7263 2.27 3.8414-2.5435 2.5518-3.8633 3.8942-3.9594 4.027-.1442.1995-.1442.5662.2225.933.3667.3667.7682.3437.9168.1833.0991-.107 1.384-1.4363 3.8548-3.9881l2.4192 2.4949c.3942.2513.74.1328 1.0376-.3557.3247-.3565.176-.7835-.4464-1.2808zm4.87-3.6547c-.1834-.3667-.3668-.3667-.7147-.3667-.3855 0-.5689 0-.7522.3667-.1834.3667-3.419 9.6882-3.4814 9.9016-.0624.2134-.1548.7334.731.7334.5557 0 .64-.4616.7334-.7334.0537-.1564.3533-1.0095.899-2.5595h3.695c.5242 1.4592.8264 2.3124.9068 2.5595.1206.3706.1834.7334.9168.7334.769 0 .5994-.5951.5501-.7334-.0492-.1384-3.3005-9.5349-3.4838-9.9016zm-1.9937 5.7377l1.2602-3.4735 1.2602 3.4735H52.472z"/>
  </g>
</svg>
