<?xml version="1.0" encoding="UTF-8"?>
<svg width="26px" height="26px" viewBox="0 0 26 26" version="1.1" xmlns="http://www.w3.org/2000/svg" xmlns:xlink="http://www.w3.org/1999/xlink">
    <!-- Generator: Sketch 51.3 (57544) - http://www.bohemiancoding.com/sketch -->
    <title>Atom/Icon/Currency</title>
    <desc>Created with Sketch.</desc>
    <defs>
        <rect id="path-1" x="0" y="0" width="26" height="26"></rect>
        <rect id="path-3" x="0" y="0" width="25" height="25"></rect>
    </defs>
    <g id="Atom/Icon/Currency" stroke="none" stroke-width="1" fill="none" fill-rule="evenodd">
        <mask id="mask-2" fill="white">
            <use xlink:href="#path-1"></use>
        </mask>
        <g id="Background"></g>
        <g id="Atom/Background/Oval-Green" mask="url(#mask-2)">
            <g transform="translate(0.500000, 0.500000)">
                <mask id="mask-4" fill="white">
                    <use xlink:href="#path-3"></use>
                </mask>
                <g id="Background" stroke="none" fill="none"></g>
                <path d="M12.5,24.5 C5.872583,24.5 0.5,19.127417 0.5,12.5 C0.5,5.872583 5.872583,0.5 12.5,0.5 C19.127417,0.5 24.5,5.872583 24.5,12.5 C24.5,19.127417 19.127417,24.5 12.5,24.5 Z" id="Atom/Background/Icon-Oval" stroke="none" fill="#1CB569" fill-rule="nonzero" mask="url(#mask-4)"></path>
            </g>
        </g>
        <path d="M20.99725,10.5 C20.9725,10.07225 20.46375,9.738 19.44625,9.483 C19.4805,9.408 19.49975,9.33 19.5,9.249 L19.5,7.5 L19.49575,7.5 C19.40625,6.043 13.43575,6 12.75,6 C12.06425,6 6.09375,6.043 6.00425,7.5 L6,7.5 L6,7.5325 L6,9.24975 C6.00125,9.72475 6.61425,10.0965 7.52625,10.37325 C7.51375,10.41475 7.50625,10.457 7.50375,10.5 L7.5,10.5 L7.5,10.5325 L7.5,12.24675 C6.5175,12.49975 6.02675,12.82925 6.0025,13.25 L6,13.25 L6,13.2825 L6,14.99975 C6.00075,15.3305 6.299,15.611 6.787,15.84475 C6.7685,15.8955 6.757,15.94725 6.75375,16.00025 L6.75,16.00025 L6.75,16.03275 L6.75,17.75 C6.752,18.5815 8.62425,19.09775 10.7045,19.33875 C10.71975,19.34175 10.73375,19.348 10.75,19.348 C10.75475,19.348 10.75875,19.3455 10.7635,19.34525 C11.1645,19.3905 11.572,19.42575 11.97525,19.451 C11.98375,19.452 11.99125,19.456 12,19.456 C12.00475,19.456 12.0085,19.4535 12.013,19.45325 C12.525,19.48425 13.02875,19.5 13.5,19.5 C13.97125,19.5 14.475,19.48425 14.987,19.453 C14.9915,19.45325 14.9955,19.45575 15,19.45575 C15.00875,19.45575 15.01625,19.4515 15.02475,19.45075 C15.428,19.4255 15.8355,19.3905 16.2365,19.345 C16.24125,19.345 16.24525,19.3475 16.25,19.3475 C16.26625,19.3475 16.28025,19.34125 16.2955,19.33825 C18.37575,19.09725 20.24775,18.58075 20.25,17.749 L20.25,16 L20.246,16 C20.2285,15.6935 19.96725,15.43775 19.45125,15.224 C19.48275,15.15175 19.5,15.07675 19.5,14.999 L19.5,13.365 C20.3975,13.089 20.99875,12.71975 21,12.249 L21,10.5 L20.99725,10.5 Z M18.973,15.08025 L18.88775,15.155 C18.7565,15.27075 18.53775,15.3875 18.25,15.5 L18.25,14.308 C18.54725,14.2045 18.80025,14.08975 19,13.964 L19,14.9985 C19,15.02425 18.9905,15.05175 18.973,15.08025 Z M13.3815,16.242 C13.345,16.243 13.30825,16.2435 13.2715,16.24425 C13.18225,16.246 13.09075,16.2465 13.00025,16.24725 L13.00025,14.9985 C13.069,14.99775 13.13775,14.99675 13.2065,14.9955 C13.21975,14.99525 13.233,14.995 13.24625,14.99475 C13.498,14.99 13.74975,14.98225 14.00025,14.97075 L14.00025,16.219 C13.94675,16.22175 13.893,16.22425 13.83875,16.2265 C13.68825,16.23325 13.53625,16.23825 13.3815,16.242 Z M12.28975,16.2455 C12.17525,16.2435 12.06125,16.24075 11.948,16.23725 C11.934,16.23675 11.92,16.23625 11.906,16.23575 C11.76975,16.23125 11.6345,16.2255 11.50025,16.219 L11.50025,14.971 C11.75075,14.98275 12.0025,14.9905 12.25425,14.995 C12.2675,14.99525 12.28075,14.9955 12.29375,14.99575 C12.3625,14.997 12.43125,14.998 12.5,14.99875 L12.5,16.24825 C12.4515,16.24775 12.403,16.24775 12.35475,16.247 C12.33275,16.2465 12.3115,16.24575 12.28975,16.2455 Z M7.77425,15.6755 C7.766,15.673 7.75825,15.67075 7.75,15.6685 L7.75,14.46075 C7.9835,14.52375 8.2345,14.58125 8.5,14.6335 L8.5,15.85375 C8.2705,15.805 8.05875,15.75375 7.866,15.70125 C7.8355,15.6925 7.804,15.68425 7.77425,15.6755 Z M13.04375,17.74575 C13.1125,17.747 13.18125,17.748 13.25,17.74875 L13.25,18.9985 C12.9045,18.99525 12.571,18.98525 12.25,18.9695 L12.25,17.72125 C12.5005,17.733 12.75225,17.74075 13.004,17.74525 C13.01725,17.74525 13.0305,17.7455 13.04375,17.74575 Z M13.996,17.745 C14.24775,17.74025 14.4995,17.7325 14.75,17.721 L14.75,18.96925 C14.429,18.985 14.0955,18.995 13.75,18.99825 L13.75,17.7485 C13.81875,17.74775 13.8875,17.74675 13.95625,17.7455 C13.9695,17.7455 13.98275,17.74525 13.996,17.745 Z M16,17.632 L16,18.8735 C15.75975,18.89875 15.50975,18.921 15.25,18.93925 L15.25,17.6925 C15.5035,17.676 15.754,17.65575 16,17.632 Z M16.5,17.578 C16.75775,17.547 17.008,17.51175 17.25,17.4725 L17.25,18.7 C17.0145,18.7415 16.76425,18.77975 16.5,18.8145 L16.5,17.578 Z M17.75,17.38325 C18.0155,17.331 18.2665,17.2735 18.5,17.2105 L18.5,18.41825 C18.27725,18.4825 18.0265,18.54475 17.75,18.6035 L17.75,17.38325 Z M9.25,17.38325 L9.25,18.6035 C8.9735,18.54475 8.72275,18.4825 8.5,18.41825 L8.5,17.2105 C8.7335,17.2735 8.9845,17.33125 9.25,17.38325 Z M9.75,17.47275 C9.992,17.512 10.24225,17.54725 10.5,17.57825 L10.5,18.81475 C10.23575,18.78 9.9855,18.74175 9.75,18.70025 L9.75,17.47275 Z M11,17.632 C11.246,17.65575 11.4965,17.676 11.75,17.69275 L11.75,18.9395 C11.49025,18.92125 11.24025,18.899 11,18.87375 L11,17.632 Z M10.37975,16.137 C10.35425,16.1345 10.329,16.13175 10.30375,16.12925 C10.28575,16.1275 10.268,16.12525 10.25,16.1235 L10.25,14.88225 C10.496,14.906 10.7465,14.92625 11,14.943 L11,16.18875 C10.79,16.17375 10.5825,16.15675 10.37975,16.137 Z M9.75,14.828 L9.75,16.0645 C9.48575,16.02975 9.2355,15.9915 9,15.95 L9,14.7225 C9.242,14.76175 9.49225,14.79725 9.75,14.828 Z M14.6665,16.177 C14.6115,16.18125 14.556,16.1855 14.5,16.1895 L14.5,14.94275 C14.7535,14.926 15.004,14.906 15.25,14.882 L15.25,16.1235 C15.0955,16.13975 14.9375,16.155 14.77525,16.16825 C14.739,16.1715 14.70275,16.17425 14.6665,16.177 Z M15.75,16.0645 L15.75,14.828 C16.00775,14.797 16.258,14.76175 16.5,14.7225 L16.5,15.95 C16.2645,15.9915 16.01425,16.03 15.75,16.0645 Z M17,14.63325 C17.2655,14.581 17.5165,14.5235 17.75,14.4605 L17.75,15.66825 C17.52725,15.7325 17.2765,15.79475 17,15.8535 L17,14.63325 Z M13.58125,13.49125 C13.39325,13.4865 13.2095,13.47925 13.029,13.4705 C13.01925,13.47 13.0095,13.4695 13,13.46925 L13,12.221 C13.2505,12.23275 13.50225,12.2405 13.754,12.245 C13.76725,12.24525 13.7805,12.2455 13.7935,12.24575 C13.86225,12.247 13.931,12.248 13.99975,12.24875 L13.99975,13.497 C13.878,13.49575 13.75525,13.49525 13.6365,13.4925 C13.61825,13.492 13.5995,13.49175 13.58125,13.49125 Z M7.75,9.9185 L7.75,8.71075 C7.9835,8.77375 8.2345,8.83125 8.5,8.8835 L8.5,10.10375 C8.46925,10.09725 8.4375,10.09075 8.4075,10.08425 C8.2745,10.055 8.14475,10.0245 8.02075,9.99225 C7.92625,9.968 7.8365,9.94325 7.75,9.9185 Z M12.29375,9.24575 C12.3625,9.247 12.43125,9.248 12.5,9.24875 L12.5,10.497 C12.1635,10.49375 11.829,10.485 11.5,10.4685 L11.5,9.22125 C11.7505,9.233 12.00225,9.24075 12.254,9.24525 C12.26725,9.24525 12.2805,9.2455 12.29375,9.24575 Z M13.246,9.245 C13.49775,9.24025 13.7495,9.2325 14,9.221 L14,10.46825 C13.9575,10.47025 13.91675,10.47325 13.874,10.47525 C13.8705,10.4755 13.867,10.4755 13.86325,10.47575 C13.6955,10.48325 13.5245,10.48875 13.35125,10.49275 C13.32425,10.4935 13.29725,10.49375 13.27025,10.4945 C13.18125,10.49625 13.09025,10.4965 13,10.4975 L13,9.24875 C13.06875,9.248 13.1375,9.247 13.20625,9.24575 C13.2195,9.2455 13.23275,9.24525 13.246,9.245 Z M18.94275,9.3705 L18.93575,9.369 L18.84475,9.43975 C18.71275,9.5425 18.51,9.6465 18.25,9.747 L18.25,8.55775 C18.54725,8.45425 18.80025,8.3395 19,8.21375 L19,9.24825 C19,9.28625 18.98,9.32725 18.94275,9.3705 Z M15.75,10.313 L15.75,9.078 C16.00775,9.047 16.258,9.01175 16.5,8.9725 L16.5,10.198 C16.263,10.24 16.0135,10.2785 15.75,10.313 Z M17,10.10175 L17,8.8835 C17.2655,8.83125 17.5165,8.77375 17.75,8.71075 L17.75,9.91575 C17.526,9.981 17.27375,10.04325 17,10.10175 Z M15.25,9.132 L15.25,10.372 C15.0085,10.3975 14.7585,10.41975 14.5,10.43825 L14.5,9.19275 C14.7535,9.176 15.004,9.15575 15.25,9.132 Z M10.25,10.3725 L10.25,9.132 C10.496,9.15575 10.7465,9.176 11,9.19275 L11,10.43725 C10.7455,10.419 10.4945,10.39825 10.25,10.3725 Z M9.75,9.078 L9.75,10.31325 C9.7005,10.30675 9.649,10.3015 9.6,10.29475 C9.568,10.29025 9.5375,10.2855 9.506,10.281 C9.3615,10.26025 9.22025,10.238 9.08175,10.21475 C9.054,10.21 9.02725,10.205 9,10.20025 L9,8.97275 C9.242,9.01175 9.49225,9.04725 9.75,9.078 Z M12.438,13.43475 C12.40425,13.43225 12.37025,13.42975 12.33675,13.42725 C12.17675,13.41475 12.0205,13.401 11.868,13.38575 C11.83525,13.3825 11.8025,13.379 11.77,13.37575 C11.76325,13.375 11.75675,13.374 11.75,13.3735 L11.75,12.132 C11.996,12.15575 12.2465,12.176 12.5,12.19275 L12.5,13.43875 C12.47975,13.43725 12.45825,13.43625 12.438,13.43475 Z M10.78625,13.248 C10.68725,13.23225 10.59425,13.21525 10.5,13.19875 L10.5,11.97275 C10.742,12.012 10.99225,12.04725 11.25,12.07825 L11.25,13.31475 C11.097,13.2945 10.94725,13.2735 10.8035,13.251 C10.79775,13.24975 10.792,13.24875 10.78625,13.248 Z M10,11.88325 L10,13.1015 C9.72375,13.04225 9.47325,12.97925 9.25,12.91375 L9.25,11.7105 C9.4835,11.7735 9.7345,11.83125 10,11.88325 Z M8.75,11.55775 L8.75,12.7455 C8.357,12.59375 8.1035,12.43875 8.021,12.30075 L8.00425,12.27275 C8.00275,12.265 8.00025,12.25675 8,12.249 L8,11.21375 C8.19975,11.3395 8.45275,11.45425 8.75,11.55775 Z M14.746,12.245 C14.99775,12.24025 15.2495,12.2325 15.5,12.221 L15.5,13.468 C15.1715,13.48425 14.8375,13.49325 14.5,13.49675 L14.5,12.24875 C14.56875,12.248 14.6375,12.247 14.70625,12.24575 C14.7195,12.2455 14.73275,12.24525 14.746,12.245 Z M17.97675,13.20425 C17.867,13.22325 17.75625,13.242 17.6425,13.25925 C17.57725,13.26925 17.5105,13.27875 17.4435,13.28825 C17.38025,13.29725 17.3145,13.305 17.25025,13.31325 L17.25025,12.078 C17.508,12.047 17.75825,12.01175 18.00025,11.9725 L18.00025,13.2 C17.99225,13.2015 17.9845,13.203 17.97675,13.20425 Z M16.284,13.41775 C16.19075,13.4255 16.0945,13.4305 16,13.43725 L16,12.19275 C16.2535,12.176 16.504,12.156 16.75,12.132 L16.75,13.37225 C16.60475,13.3875 16.45975,13.40275 16.3105,13.41525 C16.3015,13.416 16.293,13.417 16.284,13.41775 Z M19.141,12.949 C19.0165,12.98375 18.88475,13.01625 18.75025,13.048 C18.688,13.0625 18.6245,13.077 18.5595,13.091 C18.54025,13.09525 18.51975,13.099 18.50025,13.10325 L18.50025,11.8835 C18.76575,11.83125 19.01675,11.77375 19.25025,11.71075 L19.25025,12.9185 C19.21425,12.9285 19.178,12.93875 19.141,12.949 Z M20.49725,10.51625 C20.47425,10.686 20.0895,10.91175 19.40275,11.124 C18.51825,11.39725 17.13425,11.6475 15.38025,11.725 C15.2905,11.72875 15.201,11.7325 15.1095,11.7355 C15.03475,11.738 14.95975,11.74025 14.8835,11.74225 C14.6765,11.74675 14.4665,11.75 14.25,11.75 C14.0335,11.75 13.8235,11.74675 13.6165,11.742 C13.5405,11.74025 13.4655,11.73775 13.3905,11.73525 C13.29875,11.7325 13.20925,11.7285 13.11975,11.72475 C11.36575,11.64725 9.9815,11.397 9.09725,11.12375 C8.416,10.91325 8.032,10.68925 8.0035,10.52025 C8.00475,10.5155 8.00475,10.5115 8.00775,10.5055 C8.02475,10.50975 8.04375,10.51325 8.061,10.5175 C8.15875,10.54075 8.259,10.56325 8.361,10.58475 C8.85775,10.69175 9.40825,10.7795 9.99475,10.8465 C9.99675,10.8465 9.99825,10.8475 10,10.8475 C10.0005,10.8475 10.001,10.84725 10.00125,10.84725 C10.40075,10.89275 10.81525,10.9285 11.24075,10.95375 C11.244,10.95375 11.24675,10.9555 11.25,10.9555 C11.25175,10.9555 11.253,10.9545 11.25475,10.9545 C11.561,10.9725 11.87125,10.98575 12.18525,10.99275 C12.3775,10.9975 12.56625,11 12.75,11 C12.88125,11 13.01575,10.9985 13.1515,10.996 C14.968,10.968 16.6515,10.752 17.823,10.41725 C17.877,10.402 17.92975,10.38625 17.98175,10.3705 C18.0135,10.36075 18.046,10.35125 18.07675,10.3415 C18.16725,10.3125 18.254,10.28275 18.33775,10.25175 C18.35225,10.24625 18.366,10.24075 18.3805,10.23525 C18.45125,10.2085 18.51925,10.18075 18.58425,10.1525 C18.603,10.14425 18.62225,10.13625 18.6405,10.128 C18.70975,10.09675 18.77675,10.06475 18.83875,10.0315 C18.86675,10.01675 18.891,10.0015 18.91725,9.9865 C18.94725,9.96925 18.97725,9.95175 19.005,9.934 C19.02075,9.924 19.0395,9.9145 19.0545,9.9045 C20.17375,10.14725 20.46875,10.41275 20.49725,10.51625 Z M12.75,6.5 C16.87225,6.5 18.95725,7.149 18.99625,7.5215 C18.966,7.6905 18.58225,7.91375 17.90275,8.12375 C17.01825,8.397 15.63425,8.64725 13.88025,8.72475 C13.7905,8.7285 13.701,8.73225 13.6095,8.73525 C13.53475,8.73775 13.45975,8.74 13.3835,8.742 C13.1765,8.74675 12.9665,8.75 12.75,8.75 C12.5335,8.75 12.3235,8.74675 12.1165,8.742 C12.0405,8.74025 11.9655,8.73775 11.8905,8.73525 C11.79875,8.7325 11.70925,8.7285 11.61975,8.72475 C9.86575,8.64725 8.4815,8.397 7.59725,8.12375 C6.9175,7.91375 6.534,7.6905 6.50375,7.5215 C6.54275,7.149 8.62775,6.5 12.75,6.5 Z M6.5,9.249 L6.5,8.21375 C6.69975,8.3395 6.95275,8.45425 7.25,8.55775 L7.25,9.75475 C6.76375,9.5725 6.5005,9.38975 6.5,9.249 Z M7.711,12.70875 C7.71475,12.71275 7.7205,12.71625 7.72425,12.72025 C8.0665,13.06575 8.77525,13.33725 9.6575,13.53975 C9.67775,13.5445 9.69925,13.549 9.71975,13.55375 C9.7845,13.56825 9.85025,13.5825 9.91675,13.59625 C10.727,13.76875 11.69425,13.8935 12.748,13.95525 C12.74875,13.95525 12.74925,13.9555 12.74975,13.9555 C12.75025,13.9555 12.7505,13.95525 12.75075,13.95525 C13.08925,13.975 13.4355,13.98875 13.789,13.99475 C13.9455,13.998 14.0995,14 14.25,14 C14.4225,14 14.5995,13.998 14.7795,13.99375 C15.1065,13.987 15.42875,13.9735 15.7465,13.955 C15.74775,13.955 15.74875,13.95575 15.75,13.95575 C15.75225,13.95575 15.754,13.9545 15.75625,13.9545 C16.81275,13.89225 17.804,13.76625 18.64225,13.585 C18.46075,13.68 18.21225,13.77825 17.90275,13.874 C16.969,14.1625 15.47775,14.42525 13.5825,14.48625 C13.52625,14.488 13.47075,14.49 13.41375,14.4915 C13.3525,14.493 13.29025,14.494 13.228,14.49525 C13.07075,14.49775 12.9125,14.5 12.75,14.5 C12.5335,14.5 12.3235,14.49675 12.1165,14.492 C12.0405,14.49025 11.9655,14.48775 11.8905,14.48525 C11.79875,14.4825 11.70925,14.4785 11.61975,14.47475 C9.86575,14.39725 8.4815,14.147 7.59725,13.87375 C6.90975,13.66125 6.525,13.43525 6.50275,13.2655 C6.5305,13.1715 6.78325,12.93625 7.711,12.70875 Z M6.5,14.999 L6.5,13.96375 C6.69975,14.0895 6.95275,14.20425 7.25,14.30775 L7.25,15.5 L7.10725,15.4445 L7.10425,15.4475 C6.71175,15.28475 6.5005,15.125 6.5,14.999 Z M7.25,17.749 L7.25,16.71375 C7.44975,16.8395 7.70275,16.95425 8,17.05775 L8,18.25475 C7.51375,18.0725 7.2505,17.88975 7.25,17.749 Z M19,18.25475 L19,17.058 C19.29725,16.9545 19.55025,16.83975 19.75,16.714 L19.75,17.7485 C19.74975,17.88925 19.48625,18.07225 19,18.25475 Z M19.74675,16.01925 C19.7195,16.1885 19.3355,16.413 18.65275,16.624 C17.76825,16.89725 16.38425,17.1475 14.63025,17.225 C14.5405,17.22875 14.451,17.2325 14.3595,17.2355 C14.28475,17.238 14.20975,17.24025 14.1335,17.24225 C13.9265,17.24675 13.7165,17.25 13.5,17.25 C13.2835,17.25 13.07325,17.24675 12.866,17.242 C12.79075,17.24025 12.7165,17.23775 12.64225,17.23525 C12.55,17.23225 12.46,17.2285 12.36975,17.22475 C10.61575,17.14725 9.23175,16.897 8.34725,16.62375 C7.686,16.4195 7.304,16.2025 7.256,16.035 C7.3305,16.061 7.40775,16.08625 7.487,16.111 C7.495,16.1135 7.503,16.116 7.511,16.11825 C7.5785,16.139 7.6475,16.159 7.71825,16.1785 C7.745,16.186 7.772,16.1935 7.79925,16.20075 C7.83925,16.2115 7.88025,16.22175 7.92125,16.23225 C8.83175,16.4655 9.994,16.63075 11.24875,16.705 C11.24925,16.705 11.2495,16.70525 11.25,16.70525 C11.25025,16.70525 11.2505,16.705 11.25075,16.705 C11.63825,16.728 12.034,16.74225 12.434,16.747 C12.5405,16.749 12.64625,16.75 12.75,16.75 C12.88775,16.75 13.02875,16.74825 13.1715,16.74575 C13.53625,16.73975 13.89625,16.72625 14.24825,16.70525 C14.249,16.70525 14.2495,16.70575 14.25025,16.70575 C14.2515,16.70575 14.25225,16.705 14.2535,16.705 C14.68225,16.67925 15.09725,16.6425 15.496,16.59675 C15.4975,16.59675 15.49875,16.5975 15.50025,16.5975 C15.50575,16.5975 15.51025,16.59475 15.51575,16.59425 C15.95975,16.543 16.38075,16.48 16.7715,16.40675 C16.852,16.392 16.93125,16.37675 17.00975,16.361 C17.02725,16.3575 17.04475,16.354 17.06225,16.35025 C17.8005,16.19875 18.4395,16.0025 18.878,15.75925 C18.902,15.74625 18.9245,15.73275 18.94725,15.7195 C18.975,15.703 19.0015,15.68625 19.02725,15.66925 C19.05125,15.65375 19.079,15.63875 19.101,15.623 C19.5945,15.799 19.7305,15.9565 19.74675,16.01925 Z M19.75,12.75475 L19.75,11.558 C20.04725,11.4545 20.30025,11.33975 20.5,11.214 L20.5,12.2485 C20.49975,12.38925 20.23625,12.57225 19.75,12.75475 Z" id="Shape" fill="#FFFFFF" fill-rule="nonzero" mask="url(#mask-2)"></path>
    </g>
</svg>