<svg width="25" height="25" viewBox="0 0 25 25" fill="none" xmlns="http://www.w3.org/2000/svg">
<mask id="mask0" mask-type="alpha" maskUnits="userSpaceOnUse" x="0" y="0" width="25" height="25">
<rect width="25" height="25" fill="white"/>
</mask>
<g mask="url(#mask0)">
<path fill-rule="evenodd" clip-rule="evenodd" d="M24.5 12.5C24.5 19.1274 19.1274 24.5 12.5 24.5C5.87258 24.5 0.5 19.1274 0.5 12.5C0.5 5.87258 5.87258 0.5 12.5 0.5C19.1274 0.5 24.5 5.87258 24.5 12.5Z" fill="#1CB569"/>
</g>
<path d="M13.48 10.9C11.21 10.31 10.48 9.7 10.48 8.75C10.48 7.66 11.49 6.9 13.18 6.9C14.96 6.9 15.62 7.75 15.68 9H17.89C17.82 7.28 16.77 5.7 14.68 5.19V3H11.68V5.16C9.74 5.58 8.18 6.84 8.18 8.77C8.18 11.08 10.09 12.23 12.88 12.9C15.38 13.5 15.88 14.38 15.88 15.31C15.88 16 15.39 17.1 13.18 17.1C11.12 17.1 10.31 16.18 10.2 15H8C8.12 17.19 9.76 18.42 11.68 18.83V21H14.68V18.85C16.63 18.48 18.18 17.35 18.18 15.3C18.18 12.46 15.75 11.49 13.48 10.9Z" fill="white"/>
</svg>
