<?xml version="1.0" encoding="UTF-8"?>
<svg width="25px" height="25px" viewBox="0 0 25 25" version="1.1" xmlns="http://www.w3.org/2000/svg" xmlns:xlink="http://www.w3.org/1999/xlink">
    <!-- Generator: Sketch 51.3 (57544) - http://www.bohemiancoding.com/sketch -->
    <title>Atom/Icon/Currency/Euro</title>
    <desc>Created with Sketch.</desc>
    <defs>
        <rect id="path-1" x="0" y="0" width="25" height="25"></rect>
    </defs>
    <g id="Atom/Icon/Currency/Euro" stroke="none" stroke-width="1" fill="none" fill-rule="evenodd">
        <g id="Atom/Background/Oval-Green">
            <mask id="mask-2" fill="white">
                <use xlink:href="#path-1"></use>
            </mask>
            <g id="Background"></g>
            <path d="M12.5,24.5 C5.872583,24.5 0.5,19.127417 0.5,12.5 C0.5,5.872583 5.872583,0.5 12.5,0.5 C19.127417,0.5 24.5,5.872583 24.5,12.5 C24.5,19.127417 19.127417,24.5 12.5,24.5 Z" id="Atom/Background/Icon-Oval" fill="#1CB569" fill-rule="nonzero" mask="url(#mask-2)"></path>
        </g>
        <path d="M14,19.5 C11.49,19.5 9.32,18.08 8.24,16 L14,16 L14,14 L7.58,14 C7.53,13.67 7.5,13.34 7.5,13 C7.5,12.66 7.53,12.33 7.58,12 L14,12 L14,10 L8.24,10 C9.32,7.92 11.5,6.5 14,6.5 C15.61,6.5 17.09,7.09 18.23,8.07 L20,6.3 C18.41,4.87 16.3,4 14,4 C10.08,4 6.76,6.51 5.52,10 L2,10 L2,12 L5.06,12 C5.02,12.33 5,12.66 5,13 C5,13.34 5.02,13.67 5.06,14 L2,14 L2,16 L5.52,16 C6.76,19.49 10.08,22 14,22 C16.31,22 18.41,21.13 20,19.7 L18.22,17.93 C17.09,18.91 15.62,19.5 14,19.5 Z" id="Shape" fill="#FFFFFF" fill-rule="nonzero"></path>
    </g>
</svg>