<?xml version="1.0" encoding="UTF-8"?>
<svg width="25px" height="25px" viewBox="0 0 25 25" version="1.1" xmlns="http://www.w3.org/2000/svg" xmlns:xlink="http://www.w3.org/1999/xlink">
    <!-- Generator: Sketch 51.3 (57544) - http://www.bohemiancoding.com/sketch -->
    <title>Atom/Icon/Membership</title>
    <desc>Created with Sketch.</desc>
    <defs>
        <rect id="path-1" x="0" y="0" width="25" height="25"></rect>
    </defs>
    <g id="Atom/Icon/Membership" stroke="none" stroke-width="1" fill="none" fill-rule="evenodd">
        <g id="Atom/Background/Oval-Green">
            <mask id="mask-2" fill="white">
                <use xlink:href="#path-1"></use>
            </mask>
            <g id="Background"></g>
            <path d="M12.5,24.5 C5.872583,24.5 0.5,19.127417 0.5,12.5 C0.5,5.872583 5.872583,0.5 12.5,0.5 C19.127417,0.5 24.5,5.872583 24.5,12.5 C24.5,19.127417 19.127417,24.5 12.5,24.5 Z" id="Atom/Background/Icon-Oval" fill="#1CB569" fill-rule="nonzero" mask="url(#mask-2)"></path>
        </g>
        <path d="M18.9,5.5 L6.1,5.5 C5.212,5.5 4.5,6.212 4.5,7.1 L4.5,15.9 C4.5,16.788 5.212,17.5 6.1,17.5 L9.3,17.5 L9.3,21.5 L12.5,19.9 L15.7,21.5 L15.7,17.5 L18.9,17.5 C19.788,17.5 20.5,16.788 20.5,15.9 L20.5,7.1 C20.5,6.212 19.788,5.5 18.9,5.5 Z M18.9,15.9 L6.1,15.9 L6.1,14.3 L18.9,14.3 L18.9,15.9 Z M18.9,11.9 L6.1,11.9 L6.1,7.1 L18.9,7.1 L18.9,11.9 Z" id="Shape" fill="#FFFFFF" fill-rule="nonzero"></path>
    </g>
</svg>