<?xml version="1.0" encoding="UTF-8"?>
<svg width="40px" height="40px" viewBox="0 0 40 40" version="1.1" xmlns="http://www.w3.org/2000/svg" xmlns:xlink="http://www.w3.org/1999/xlink">
    <!-- Generator: Sketch 51.3 (57544) - http://www.bohemiancoding.com/sketch -->
    <title>Atom/Icon/Register</title>
    <desc>Created with Sketch.</desc>
    <defs>
        <rect id="path-1" x="0" y="0" width="40" height="40"></rect>
        <rect id="path-3" x="0" y="0" width="40" height="40"></rect>
        <rect id="path-5" x="0" y="0" width="17" height="24"></rect>
    </defs>
    <g id="Agentur-" stroke="none" stroke-width="1" fill="none" fill-rule="evenodd">
        <g id="Agentur-1.-Startseite-Linguala" transform="translate(-920.000000, -20.000000)">
            <g id="Seite/Landing-Page" transform="translate(0.000000, -1.000000)">
                <g id="Organism/Floaters/Header-Public-Icons">
                    <g id="Molecule/Multiples/Public-Menu" transform="translate(440.000000, 0.000000)">
                        <g id="molecule/with-text/login" transform="translate(400.000000, 1.000000)">
                            <g id="Molecule/With-Text/login-reg">
                                <g id="Atom/Icon/Register" transform="translate(80.000000, 20.000000)">
                                    <mask id="mask-2" fill="white">
                                        <use xlink:href="#path-1"></use>
                                    </mask>
                                    <g id="Background"></g>
                                    <g mask="url(#mask-2)">
                                        <g id="Atom/Background/Oval-Green">
                                            <mask id="mask-4" fill="white">
                                                <use xlink:href="#path-3"></use>
                                            </mask>
                                            <g id="Background"></g>
                                            <path d="M20,39.2 C9.3961328,39.2 0.8,30.6038672 0.8,20 C0.8,9.3961328 9.3961328,0.8 20,0.8 C30.6038672,0.8 39.2,9.3961328 39.2,20 C39.2,30.6038672 30.6038672,39.2 20,39.2 Z" id="Atom/Background/Icon-Oval" fill="#1CB569" fill-rule="nonzero" mask="url(#mask-4)"></path>
                                        </g>
                                        <g id="Atom/Icon/Einzelperson-Anbieter" transform="translate(11.200000, 8.000000)">
                                            <mask id="mask-6" fill="white">
                                                <use xlink:href="#path-5"></use>
                                            </mask>
                                            <g id="Background"></g>
                                            <g stroke-width="1" fill-rule="evenodd" mask="url(#mask-6)" fill="#FFFFFF" id="einzelperson-anbieter">
                                                <path d="M4.65919084,8.9658129 C3.72208335,7.93809264 3.23607033,6.55597941 3.27098888,5.13840751 C3.30571765,3.68537693 3.8957272,2.37437481 4.93702101,1.4175719 C5.90885728,0.496227672 7.15833393,0 8.47726813,0 C9.93492764,0 11.3580482,0.60240993 12.3298844,1.70104753 C14.3082857,3.8626703 14.1691809,7.26476536 12.0520543,9.24928853 C11.080218,10.170439 9.83074133,10.6666667 8.51199691,10.6666667 C7.05414762,10.6666667 5.63102711,10.0642567 4.65919084,8.9658129 Z M10.1575195,12 C13.9349725,12 17.0001949,15.3728223 17,19.5291343 L17,23.9997856 L1.56319402e-13,24 L1.56319402e-13,19.5293487 C1.56319402e-13,15.3726079 3.06502751,12 6.84287024,12 L10.1575195,12 Z" fill-rule="nonzero"></path>
                                            </g>
                                        </g>
                                        <path d="M20.173575,27.5092856 C20.2051517,27.3603979 20.3133781,26.8429682 20.3354726,26.7384948 C20.4008434,26.4293907 20.4534142,26.1903192 20.5079892,25.9576019 C20.5663072,25.7090963 20.6966291,25.5193905 20.8737851,25.3418687 C23.4840435,22.7244458 26.1871155,20.0172979 29.6029456,16.598809 C30.1488697,16.0524836 30.8625448,15.8991513 31.5439656,16.2050307 C32.2106097,16.5042801 32.6148456,17.1964946 32.4892888,17.9282932 C32.4275979,18.2876262 32.2533669,18.6523846 32.0002888,18.9073006 C29.5134877,21.411299 27.2565279,23.6718343 23.1901723,27.7361002 C23.0275658,27.89847 22.8127221,28.0234889 22.5846214,28.0752505 C22.3783589,28.1220735 22.1641063,28.1685291 21.9028129,28.2235036 C21.7548722,28.2546294 21.1917487,28.3715344 21.0612254,28.398913 L19.934788,28.6351946 L20.173575,27.5092856 Z" id="Path" stroke="#1CB569" stroke-width="1.5" fill="#FFFFFF"></path>
                                    </g>
                                </g>
                            </g>
                        </g>
                    </g>
                </g>
            </g>
        </g>
    </g>
</svg>