<?xml version="1.0" encoding="UTF-8"?>
<svg width="35px" height="42px" viewBox="0 0 35 42" version="1.1" xmlns="http://www.w3.org/2000/svg" xmlns:xlink="http://www.w3.org/1999/xlink">
    <!-- Generator: Sketch 51.3 (57544) - http://www.bohemiancoding.com/sketch -->
    <title>Group</title>
    <desc>Created with Sketch.</desc>
    <defs>
        <rect id="path-1" x="0" y="0" width="60" height="60"></rect>
    </defs>
    <g id="Agentur-" stroke="none" stroke-width="1" fill="none" fill-rule="evenodd">
        <g id="Agentur-2.-Registrierung" transform="translate(-423.000000, -673.000000)">
            <g id="Checkbox" transform="translate(410.000000, 660.000000)">
                <g id="Group">
                    <g id="Atom/Shape/Pin-Border/Green">
                        <mask id="mask-2" fill="white">
                            <use xlink:href="#path-1"></use>
                        </mask>
                        <g id="Background"></g>
                        <g stroke-width="1" fill-rule="evenodd" mask="url(#mask-2)">
                            <g id="Group">
                                <circle id="Oval-2" cx="30" cy="15" r="15"></circle>
                                <circle id="Oval-2" cx="45" cy="30" r="15"></circle>
                                <circle id="Oval-2" cx="15" cy="30" r="15"></circle>
                                <circle id="Oval-2" cx="30" cy="45" r="15"></circle>
                            </g>
                            <path d="M30.5661423,53.5120697 C31.1731053,53.1448273 31.896569,52.67205 32.6708674,52.1266851 C34.8295341,50.606262 36.9920643,48.8076875 38.9528907,46.7970103 C41.4453605,44.2411736 43.4359771,41.5201579 44.7649913,38.6760805 C46.3143768,35.3604111 46.9189868,31.9739534 46.4400329,28.5247989 C45.2783436,20.1589704 38.6035816,14.2 30.3536692,14.2 C22.129426,14.2 15.5515797,20.1271273 14.379175,28.5256561 C13.8436877,32.3616226 14.517704,36.0172984 16.2329966,39.5052994 C17.6810673,42.4499119 19.8291926,45.1925272 22.5016803,47.7165712 C24.3384961,49.4513607 26.3033304,50.9739312 28.3082535,52.3074996 C28.9857746,52.7581507 29.6003647,53.1428504 30.2255489,53.5166749 C30.2677966,53.5419367 30.3277254,53.5775635 30.392571,53.6160349 C30.4478933,53.5832531 30.5059008,53.5485187 30.5661423,53.5120697 Z M47.6286281,28.3597491 C49.8151899,44.106129 30.3554546,55.1338882 30.3554546,54.998772 C30.3554546,54.8636557 10.8785335,44.922963 13.1906991,28.3597491 C14.4362548,19.4372028 21.4632496,13 30.3536692,13 C39.2440888,13 46.3903824,19.4426044 47.6286281,28.3597491 Z" fill="#1CB569" fill-rule="nonzero"></path>
                        </g>
                    </g>
                </g>
            </g>
        </g>
    </g>
</svg>