<?xml version="1.0" encoding="UTF-8"?>
<svg width="25px" height="25px" viewBox="0 0 25 25" version="1.1" xmlns="http://www.w3.org/2000/svg" xmlns:xlink="http://www.w3.org/1999/xlink">
    <!-- Generator: Sketch 51.3 (57544) - http://www.bohemiancoding.com/sketch -->
    <title>Atom/Icon/Socials/Twitter</title>
    <desc>Created with Sketch.</desc>
    <defs>
        <rect id="path-1" x="0" y="0" width="25" height="25"></rect>
    </defs>
    <g id="Symbols" stroke="none" stroke-width="1" fill="none" fill-rule="evenodd">
        <g id="Molecule/Icon/Socials/Twitter" transform="translate(-18.000000, -18.000000)">
            <g id="Atom/Icon/Socials/Twitter" transform="translate(18.000000, 18.000000)">
                <g id="Atom/Background/Oval-Green" transform="translate(0.000221, 0.000000)">
                    <mask id="mask-2" fill="white">
                        <use xlink:href="#path-1"></use>
                    </mask>
                    <g id="Background"></g>
                    <path d="M12.5,24.5 C5.872583,24.5 0.5,19.127417 0.5,12.5 C0.5,5.872583 5.872583,0.5 12.5,0.5 C19.127417,0.5 24.5,5.872583 24.5,12.5 C24.5,19.127417 19.127417,24.5 12.5,24.5 Z" id="Atom/Background/Icon-Oval" fill="#1CB569" fill-rule="nonzero" mask="url(#mask-2)"></path>
                </g>
                <path d="M20.0134956,8.91946903 C19.4816372,9.15530973 18.9095133,9.31482301 18.3095133,9.38606195 C18.9221239,9.01902655 19.3922566,8.43827434 19.6141593,7.74513274 C19.0409292,8.08517699 18.4057522,8.33185841 17.7303097,8.46482301 C17.1891593,7.88849558 16.4181416,7.52831858 15.5643805,7.52831858 C13.9263274,7.52831858 12.5977876,8.85685841 12.5977876,10.4949115 C12.5977876,10.7274336 12.624115,10.9537611 12.675,11.1710177 C10.2095133,11.0473451 8.02345133,9.86637168 6.56017699,8.0710177 C6.30486726,8.5090708 6.15840708,9.01902655 6.15840708,9.56261062 C6.15840708,10.5915929 6.68252212,11.5 7.47809735,12.0318584 C6.9920354,12.0165929 6.53429204,11.8831858 6.13451327,11.6603982 C6.13429204,11.6730088 6.13429204,11.6856195 6.13429204,11.6980088 C6.13429204,13.1353982 7.15730088,14.334292 8.51415929,14.6066372 C8.26548673,14.6747788 8.00287611,14.7108407 7.73274336,14.7108407 C7.54115044,14.7108407 7.35553097,14.6924779 7.17455752,14.6579646 C7.55199115,15.8362832 8.64734513,16.6940265 9.94579646,16.7181416 C8.93030973,17.5139381 7.65132743,17.9880531 6.26106195,17.9880531 C6.02212389,17.9880531 5.78539823,17.974115 5.55376106,17.9464602 C6.8659292,18.7884956 8.42566372,19.2794248 10.100885,19.2794248 C15.5575221,19.2794248 18.5415929,14.7590708 18.5415929,10.8384956 C18.5415929,10.7099558 18.5387168,10.5818584 18.5329646,10.4548673 C19.1130531,10.0367257 19.6159292,9.51438053 20.0134956,8.91946903 Z" id="Shape" fill="#FFFFFF" fill-rule="nonzero"></path>
            </g>
        </g>
    </g>
</svg>