<?xml version="1.0" encoding="UTF-8"?>
<svg width="36px" height="43px" viewBox="0 0 36 43" version="1.1" xmlns="http://www.w3.org/2000/svg" xmlns:xlink="http://www.w3.org/1999/xlink">
    <!-- Generator: Sketch 51.3 (57544) - http://www.bohemiancoding.com/sketch -->
    <title>Group</title>
    <desc>Created with Sketch.</desc>
    <defs></defs>
    <g id="Agentur-" stroke="none" stroke-width="1" fill="none" fill-rule="evenodd">
        <g id="Agentur-2.1.-Registrierung---Fehlendes-Feld" transform="translate(-422.000000, -737.000000)">
            <g id="Container" transform="translate(20.000000, 120.000000)">
                <g id="Checkbox" transform="translate(390.000000, 605.000000)">
                    <g id="Group">
                        <g id="Atom/Shape/Pin-Border/Blue">
                            <g id="Atom/Shape/Pin-Border-Blue">
                                <g id="Group">
                                    <circle id="Oval-2" cx="30" cy="15" r="15"></circle>
                                    <circle id="Oval-2" cx="45" cy="30" r="15"></circle>
                                    <circle id="Oval-2" cx="15" cy="30" r="15"></circle>
                                    <circle id="Oval-2" cx="30" cy="45" r="15"></circle>
                                </g>
                                <path d="M30.1661423,53.1120697 C30.7731053,52.7448273 31.496569,52.27205 32.2708674,51.7266851 C34.4295341,50.206262 36.5920643,48.4076875 38.5528907,46.3970103 C41.0453605,43.8411736 43.0359771,41.1201579 44.3649913,38.2760805 C45.9143768,34.9604111 46.5189868,31.5739534 46.0400329,28.1247989 C44.8783436,19.7589704 38.2035816,13.8 29.9536692,13.8 C21.729426,13.8 15.1515797,19.7271273 13.979175,28.1256561 C13.4436877,31.9616226 14.117704,35.6172984 15.8329966,39.1052994 C17.2810673,42.0499119 19.4291926,44.7925272 22.1016803,47.3165712 C23.9384961,49.0513607 25.9033304,50.5739312 27.9082535,51.9074996 C28.5857746,52.3581507 29.2003647,52.7428504 29.8255489,53.1166749 C29.8677966,53.1419367 29.9277254,53.1775635 29.992571,53.2160349 C30.0478933,53.1832531 30.1059008,53.1485187 30.1661423,53.1120697 Z M47.2286281,27.9597491 C49.4151899,43.706129 29.9554546,54.7338882 29.9554546,54.598772 C29.9554546,54.4636557 10.4785335,44.522963 12.7906991,27.9597491 C14.0362548,19.0372028 21.0632496,12.6 29.9536692,12.6 C38.8440888,12.6 45.9903824,19.0426044 47.2286281,27.9597491 Z" fill="#4A90E2" fill-rule="nonzero"></path>
                            </g>
                        </g>
                        <g id="Atom/Icon/Checkmark" transform="translate(23.000000, 24.000000)" fill="#4A90E2">
                            <polygon id="Checkmark" points="1.5 8.5 0 10 4 14 15.5911865 2.40170288 14.0640869 0.975952148 4 11"></polygon>
                        </g>
                    </g>
                </g>
            </g>
        </g>
    </g>
</svg>