<svg width="25" height="25" viewBox="0 0 25 25" fill="none" xmlns="http://www.w3.org/2000/svg">
<g id="Atom/Icon/verified user">
<g id="Atom/Background/Icon Oval">
<mask id="mask0" mask-type="alpha" maskUnits="userSpaceOnUse" x="0" y="0" width="25" height="25">
<rect id="Background" width="25" height="25" fill="white"/>
</mask>
<g mask="url(#mask0)">
<path id="Atom/Background/Icon Oval_2" fill-rule="evenodd" clip-rule="evenodd" d="M24.5 12.5C24.5 19.1274 19.1274 24.5 12.5 24.5C5.87258 24.5 0.5 19.1274 0.5 12.5C0.5 5.87258 5.87258 0.5 12.5 0.5C19.1274 0.5 24.5 5.87258 24.5 12.5Z" fill="#1CB569"/>
</g>
</g>
<path id="Shape" fill-rule="evenodd" clip-rule="evenodd" d="M5 6.27273L12.3636 3L19.7273 6.27273V11.1818C19.7273 15.7227 16.5855 19.9691 12.3636 21C8.14182 19.9691 5 15.7227 5 11.1818V6.27273ZM7.45455 12.8182L10.7273 16.0909L17.2727 9.54545L16.1191 8.38364L10.7273 13.7755L8.60818 11.6645L7.45455 12.8182Z" fill="white"/>
</g>
</svg>
